{
  "name": "spring_girl",
  "background": {
    "name": "background_9to16"
  },
  "size": [
    1730,
    3075
  ],
  "ws": [
    {
      "name": "bird_2",
      "position": "1421 1032"
    },
    {
      "name": "bird_1",
      "position": "300 548"
    },
    {
      "name": "bushes_5",
      "position": "right bottom",
      "anchor": "right bottom"
    },
    {
      "name": "bushes_4",
      "position": "right bottom",
      "anchor": "right bottom"
    },
    {
      "name": "the girl and rabbits",
      "group": [
        {
          "name": "girl",
          "position": "630 2500",
          "anchor": "center bottom",
          "scale": 0.5
        },
        {
          "name": "rabbits",
          "position": "924 2440",
          "anchor": "center bottom",
          "scale": 0.5
        }
      ]
    },
    {
      "name": "butterfly_3",
      "position": "1190 1820",
      "scale": 0.5
    },
    {
      "name": "butterfly_4",
      "position": "1300 1900",
      "scale": 0.5
    },
    {
      "name": "flowers_6",
      "position": "904 2772"
    },
    {
      "name": "flowers_1",
      "position": "left bottom",
      "anchor": "left bottom"
    }
  ]
}