{
  "name": "fox_and_fish",
  "background": {
    "name": "background_1to1"
  },
  "size": [
    4096,
    4096
  ],
  "ws": [
    {
      "name": "bushes_bg",
      "position": "right 1784",
      "anchor": "right center"
    },
    {
      "name": "ground_1",
      "position": "left 2922",
      "anchor": "left center"
    },
    {
      "name": "water_with_surface_with_fish",
      "position": "center bottom",
      "anchor": "center bottom"
    },
    {
      "name": "ground_2_with_water",
      "position": "right 2968",
      "anchor": "right center"
    },
    {
      "name": "tree",
      "position": "left 1240",
      "anchor": "left center"
    },
    {
      "name": "tree_foliage",
      "position": "center top",
      "anchor": "center top"
    },
    {
      "name": "bushes_1",
      "position": "left 2248",
      "anchor": "left center"
    },
    {
      "name": "bushes_2",
      "isPartBackground": true,
      "position": "right 1870",
      "anchor": "right center"
    },
    {
      "name": "rocks_with_water_1",
      "position": "1015 3344"
    },
    {
      "name": "rocks_with_water_2",
      "position": "1928 2924"
    },
    {
      "name": "rocks_with_water_3",
      "isPartBackground": true,
      "position": "3868 3344"
    },
    {
      "name": "bird",
      "position": "3129 774"
    },
    {
      "name": "bushes_3",
      "isPartBackground": true,
      "position": "left bottom",
      "anchor": "left bottom"
    },
    {
      "name": "bushes_4",
      "isPartBackground": true,
      "position": "right bottom",
      "anchor": "right bottom"
    },
    {
      "name": "fox",
      "position": "1309 1886"
    }
  ]
}